CJL Lab - Classification
…
# Fit the models
fit_dt <- fit(workflow_dt, data = train_data)
fit_rf <- fit(workflow_rf, data = train_data)
fit_nb <- fit(workflow_nb, data = train_data)
fit_knn <- fit(workflow_knn, data = train_data)

Finally, we will evaluate the performance of each model using accuracy as the metric.

predict(fit_dt, test_data) %>% 
  bind_cols(predict(fit_dt, test_data, type = "prob")) %>% 
  # Add the true outcome data back in
  bind_cols(test_data %>% 
              select(Species))

# A tibble: 38 × 5
   .pred_class .pred_setosa .pred_versicolor .pred_virginica Species
   <fct>              <dbl>            <dbl>           <dbl> <fct>  
 1 setosa                 1                0               0 setosa 
 2 setosa                 1                0               0 setosa 
 3 setosa                 1                0               0 setosa 
 4 setosa                 1                0               0 setosa 
 5 setosa                 1                0               0 setosa 
 6 setosa                 1                0               0 setosa 
 7 setosa                 1                0               0 setosa 
 8 setosa                 1                0               0 setosa 
 9 setosa                 1                0               0 setosa 
10 setosa                 1                0               0 setosa 
# ℹ 28 more rows
…
