데이터 유형 및 구조(2) – CJL & Lab
…
mtcars %>% add_rownames %>% arrange(desc(mpg)) %>% select(rowname)

Warning: `add_rownames()` was deprecated in dplyr 1.0.0.
ℹ Please use `tibble::rownames_to_column()` instead.

# A tibble: 32 × 1
   rowname       
   <chr>         
 1 Toyota Corolla
 2 Fiat 128      
 3 Honda Civic   
 4 Lotus Europa  
 5 Fiat X1-9     
 6 Porsche 914-2 
 7 Merc 240D     
 8 Datsun 710    
 9 Merc 230      
10 Toyota Corona 
# ℹ 22 more rows
…
  Petal.Length
1        563.7

iris %>% summarise_at(c("Petal.Length", "Petal.Width"), mean)

  Petal.Length Petal.Width
1        3.758    1.199333

Group and Summarise data

# Group
iris %>% group_by(Species)

# A tibble: 150 × 5
# Groups:   Species [3]
   Sepal.Length Sepal.Width Petal.Length Petal.Width Species
          <dbl>       <dbl>        <dbl>       <dbl> <fct>  
 1          5.1         3.5          1.4         0.2 setosa 
 2          4.9         3            1.4         0.2 setosa 
 3          4.7         3.2          1.3         0.2 setosa 
 4          4.6         3.1          1.5         0.2 setosa 
 5          5           3.6          1.4         0.2 setosa 
 6          5.4         3.9          1.7         0.4 setosa 
 7          4.6         3.4          1.4         0.3 setosa 
 8          5           3.4          1.5         0.2 setosa 
 9          4.4         2.9          1.4         0.2 setosa 
10          4.9         3.1          1.5         0.1 setosa 
# ℹ 140 more rows
…
