CJL & Lab - Data Exploration (2)
…
glimpse(gapminder)

Rows: 1,704
Columns: 6
$ country   <fct> "Afghanistan", "Afghanistan", "Afghanistan", "Afghanistan", …
$ continent <fct> Asia, Asia, Asia, Asia, Asia, Asia, Asia, Asia, Asia, Asia, …
$ year      <int> 1952, 1957, 1962, 1967, 1972, 1977, 1982, 1987, 1992, 1997, …
$ lifeExp   <dbl> 28.801, 30.332, 31.997, 34.020, 36.088, 38.438, 39.854, 40.8…
$ pop       <int> 8425333, 9240934, 10267083, 11537966, 13079460, 14880372, 12…
$ gdpPercap <dbl> 779.4453, 820.8530, 853.1007, 836.1971, 739.9811, 786.1134, …

gapminder[, c("country", "lifeExp")]

# A tibble: 1,704 × 2
   country     lifeExp
   <fct>         <dbl>
 1 Afghanistan    28.8
 2 Afghanistan    30.3
 3 Afghanistan    32.0
 4 Afghanistan    34.0
 5 Afghanistan    36.1
 6 Afghanistan    38.4
 7 Afghanistan    39.9
 8 Afghanistan    40.8
 9 Afghanistan    41.7
10 Afghanistan    41.8
# ℹ 1,694 more rows

gapminder[, c("country", "lifeExp", "year")]

# A tibble: 1,704 × 3
   country     lifeExp  year
   <fct>         <dbl> <int>
 1 Afghanistan    28.8  1952
 2 Afghanistan    30.3  1957
 3 Afghanistan    32.0  1962
 4 Afghanistan    34.0  1967
 5 Afghanistan    36.1  1972
 6 Afghanistan    38.4  1977
 7 Afghanistan    39.9  1982
 8 Afghanistan    40.8  1987
 9 Afghanistan    41.7  1992
10 Afghanistan    41.8  1997
# ℹ 1,694 more rows
…
     lifeExp          pop 
7.005592e+01 4.289916e+06 

apply(gapminder[gapminder$country == "Korea, Rep.",
                 c("lifeExp","pop")],
       2, mean)

     lifeExp          pop 
      65.001 36499386.333 

# 03 Data processing using the dplyr library #
select(gapminder, country, year, lifeExp)

# A tibble: 1,704 × 3
   country      year lifeExp
   <fct>       <int>   <dbl>
 1 Afghanistan  1952    28.8
 2 Afghanistan  1957    30.3
 3 Afghanistan  1962    32.0
 4 Afghanistan  1967    34.0
 5 Afghanistan  1972    36.1
 6 Afghanistan  1977    38.4
 7 Afghanistan  1982    39.9
 8 Afghanistan  1987    40.8
 9 Afghanistan  1992    41.7
10 Afghanistan  1997    41.8
# ℹ 1,694 more rows
…
# A tibble: 5 × 2
  continent   pop_avg
  <fct>         <dbl>
1 Africa     9916003.
2 Americas  24504795.
3 Asia      77038722.
4 Europe    17169765.
5 Oceania    8874672.

summarize(group_by(gapminder, continent, country), pop_avg = mean(pop))

`summarise()` has grouped output by 'continent'. You can override using the
`.groups` argument.

# A tibble: 142 × 3
# Groups:   continent [5]
   continent country                    pop_avg
   <fct>     <fct>                        <dbl>
 1 Africa    Algeria                  19875406.
 2 Africa    Angola                    7309390.
 3 Africa    Benin                     4017497.
 4 Africa    Botswana                   971186.
 5 Africa    Burkina Faso              7548677.
 6 Africa    Burundi                   4651608.
 7 Africa    Cameroon                  9816648.
 8 Africa    Central African Republic  2560963 
 9 Africa    Chad                      5329256.
10 Africa    Comoros                    361684.
# ℹ 132 more rows

gapminder %>%
   group_by(continent, country) %>%
   summarize(pop_avg = mean(pop))

`summarise()` has grouped output by 'continent'. You can override using the
`.groups` argument.

# A tibble: 142 × 3
# Groups:   continent [5]
   continent country                    pop_avg
   <fct>     <fct>                        <dbl>
 1 Africa    Algeria                  19875406.
 2 Africa    Angola                    7309390.
 3 Africa    Benin                     4017497.
 4 Africa    Botswana                   971186.
 5 Africa    Burkina Faso              7548677.
 6 Africa    Burundi                   4651608.
 7 Africa    Cameroon                  9816648.
 8 Africa    Central African Republic  2560963 
 9 Africa    Chad                      5329256.
10 Africa    Comoros                    361684.
# ℹ 132 more rows
…
(x_avg = avocado %>% group_by(region) %>% summarize(V_avg = mean(Total.Volume), P_avg = mean(AveragePrice)))

# A tibble: 54 × 3
   region                 V_avg P_avg
   <chr>                  <dbl> <dbl>
 1 Albany                47538.  1.56
 2 Atlanta              262145.  1.34
 3 BaltimoreWashington  398562.  1.53
 4 Boise                 42643.  1.35
 5 Boston               287793.  1.53
 6 BuffaloRochester      67936.  1.52
 7 California          3044324.  1.40
 8 Charlotte            105194.  1.61
 9 Chicago              395569.  1.56
10 CincinnatiDayton     131722.  1.21
# ℹ 44 more rows

(x_avg = avocado %>% group_by(region, year) %>% summarize(V_avg = mean(Total.Volume), P_avg = mean(AveragePrice)))

`summarise()` has grouped output by 'region'. You can override using the
`.groups` argument.

# A tibble: 216 × 4
# Groups:   region [54]
   region               year   V_avg P_avg
   <chr>               <int>   <dbl> <dbl>
 1 Albany               2015  38749.  1.54
 2 Albany               2016  50619.  1.53
 3 Albany               2017  49355.  1.64
 4 Albany               2018  64249.  1.44
 5 Atlanta              2015 223382.  1.38
 6 Atlanta              2016 272374.  1.21
 7 Atlanta              2017 271841.  1.43
 8 Atlanta              2018 342976.  1.29
 9 BaltimoreWashington  2015 390823.  1.37
10 BaltimoreWashington  2016 393210.  1.59
# ℹ 206 more rows
…
# install.packages("ggplot2")
library(ggplot2)

arrange(x_avg, desc(V_avg))

# A tibble: 432 × 5
# Groups:   region, year [216]
   region        year type             V_avg P_avg
   <chr>        <int> <chr>            <dbl> <dbl>
 1 TotalUS       2018 conventional 42125533. 1.06 
 2 TotalUS       2016 conventional 34043450. 1.05 
 3 TotalUS       2017 conventional 33995658. 1.22 
 4 TotalUS       2015 conventional 31224729. 1.01 
 5 SouthCentral  2018 conventional  7465557. 0.806
 6 West          2018 conventional  7451445. 0.981
 7 California    2018 conventional  6786962. 1.08 
 8 West          2016 conventional  6404892. 0.916
 9 West          2017 conventional  6279482. 1.10 
10 California    2016 conventional  6105539. 1.05 
# ℹ 422 more rows
…
Attaching package: 'lubridate'

The following objects are masked from 'package:base':

    date, intersect, setdiff, union

(x_avg = avocado %>% 
    group_by(region, year, month(Date), type) %>% 
    summarize(V_avg = mean(Total.Volume), 
              P_avg = mean(AveragePrice)))

`summarise()` has grouped output by 'region', 'year', 'month(Date)'. You can
override using the `.groups` argument.

# A tibble: 4,212 × 6
# Groups:   region, year, month(Date) [2,106]
   region  year `month(Date)` type          V_avg P_avg
   <chr>  <int>         <dbl> <chr>         <dbl> <dbl>
 1 Albany  2015             1 conventional 42932.  1.17
 2 Albany  2015             1 organic       1198.  1.84
 3 Albany  2015             2 conventional 52343.  1.03
 4 Albany  2015             2 organic       1334.  1.76
 5 Albany  2015             3 conventional 50659.  1.06
 6 Albany  2015             3 organic       1444.  1.83
 7 Albany  2015             4 conventional 48594.  1.17
 8 Albany  2015             4 organic       1402.  1.89
 9 Albany  2015             5 conventional 97216.  1.26
10 Albany  2015             5 organic       1836.  1.94
# ℹ 4,202 more rows
…
mtcars %>% add_rownames %>% arrange(desc(mpg)) %>% select(rowname)

Warning: `add_rownames()` was deprecated in dplyr 1.0.0.
ℹ Please use `tibble::rownames_to_column()` instead.

# A tibble: 32 × 1
   rowname       
   <chr>         
 1 Toyota Corolla
 2 Fiat 128      
 3 Honda Civic   
 4 Lotus Europa  
 5 Fiat X1-9     
 6 Porsche 914-2 
 7 Merc 240D     
 8 Datsun 710    
 9 Merc 230      
10 Toyota Corona 
# ℹ 22 more rows
…
  Petal.Length
1        563.7

iris %>% summarise_at(c("Petal.Length", "Petal.Width"), mean)

  Petal.Length Petal.Width
1        3.758    1.199333

Group and Summarise data

# Group
iris %>% group_by(Species)

# A tibble: 150 × 5
# Groups:   Species [3]
   Sepal.Length Sepal.Width Petal.Length Petal.Width Species
          <dbl>       <dbl>        <dbl>       <dbl> <fct>  
 1          5.1         3.5          1.4         0.2 setosa 
 2          4.9         3            1.4         0.2 setosa 
 3          4.7         3.2          1.3         0.2 setosa 
 4          4.6         3.1          1.5         0.2 setosa 
 5          5           3.6          1.4         0.2 setosa 
 6          5.4         3.9          1.7         0.4 setosa 
 7          4.6         3.4          1.4         0.3 setosa 
 8          5           3.4          1.5         0.2 setosa 
 9          4.4         2.9          1.4         0.2 setosa 
10          4.9         3.1          1.5         0.1 setosa 
# ℹ 140 more rows
…
