CJL & Lab - NLP
…
raw_news_comment <- read_csv("data/news_comment_parasite.csv") %>%
  mutate(id = row_number())

Rows: 4150 Columns: 5
── Column specification ────────────────────────────────────────────────────────
Delimiter: ","
chr  (4): reply, press, title, url
dttm (1): reg_time

ℹ Use `spec()` to retrieve the full column specification for this data.
ℹ Specify the column types or set `show_col_types = FALSE` to quiet this message.

raw_news_comment

# A tibble: 4,150 × 6
   reg_time            reply                             press title url      id
   <dttm>              <chr>                             <chr> <chr> <chr> <int>
 1 2020-02-10 16:59:02 "정말 우리 집에 좋은 일이 생겨 …  MBC   '기…  http…     1
 2 2020-02-10 13:32:24 "와 너무 기쁘다! 이 시국에 정말 … SBS   [영…  http…     2
 3 2020-02-10 12:30:09 "우리나라의 영화감독분들 그리고 … 한겨… ‘기…  http…     3
 4 2020-02-10 13:08:22 "봉준호 감독과 우리나라 대한민국… 한겨… ‘기…  http…     4
 5 2020-02-10 16:25:41 "노벨상 탄느낌이네요\r\n축하축하… 한겨… ‘기…  http…     5
 6 2020-02-10 12:31:45 "기생충 상 받을때 박수 쳤어요.감… 한겨… ‘기…  http…     6
 7 2020-02-10 12:31:33 "대한민국 영화사를 새로 쓰고 계…  한겨… ‘기…  http…     7
 8 2020-02-11 09:20:52 "저런게 아카데미상 받으면  '태극… 한겨… ‘기…  http…     8
 9 2020-02-10 20:53:27 "다시한번 보여주세요 영화관에서 … 한겨… ‘기…  http…     9
10 2020-02-10 20:22:41 "대한민국 BTS와함께  봉준호감독…  한겨… ‘기…  http…    10
# ℹ 4,140 more rows

기본적인 전처리

# 기본적인 전처리
library(stringr)
library(textclean)
news_comment <- raw_news_comment %>%
  mutate(reply = str_replace_all(reply, "[^가-힣]", " "),
         reply = str_squish(reply)) %>%
  distinct(reply, .keep_all = T) %>% # 중복 댓글 제거
  filter(str_count(reply, boundary("word")) >= 3) # 짧은 문서 제거, 3단어 이상 추출
news_comment

# A tibble: 3,329 × 6
   reg_time            reply                             press title url      id
   <dttm>              <chr>                             <chr> <chr> <chr> <int>
 1 2020-02-10 16:59:02 정말 우리 집에 좋은 일이 생겨 기… MBC   '기…  http…     1
 2 2020-02-10 13:32:24 와 너무 기쁘다 이 시국에 정말 내… SBS   [영…  http…     2
 3 2020-02-10 12:30:09 우리나라의 영화감독분들 그리고 …  한겨… ‘기…  http…     3
 4 2020-02-10 13:08:22 봉준호 감독과 우리나라 대한민국 … 한겨… ‘기…  http…     4
 5 2020-02-10 16:25:41 노벨상 탄느낌이네요 축하축하 합…  한겨… ‘기…  http…     5
 6 2020-02-10 12:31:45 기생충 상 받을때 박수 쳤어요 감…  한겨… ‘기…  http…     6
 7 2020-02-10 12:31:33 대한민국 영화사를 새로 쓰고 계시… 한겨… ‘기…  http…     7
 8 2020-02-11 09:20:52 저런게 아카데미상 받으면 태극기 … 한겨… ‘기…  http…     8
 9 2020-02-10 20:53:27 다시한번 보여주세요 영화관에서 …  한겨… ‘기…  http…     9
10 2020-02-10 20:22:41 대한민국 와함께 봉준호감독님까지… 한겨… ‘기…  http…    10
# ℹ 3,319 more rows
…
# 명사 추출
comment <- news_comment %>%
  unnest_tokens(input = reply,
                output = word,
                token = extractNoun,
                drop = F) %>%
  filter(str_count(word) > 1) %>%
  group_by(id) %>% # 댓글 내 중복 단어 제거
  distinct(word, .keep_all = T) %>%
  ungroup() %>%
  select(id, word) 
comment

# A tibble: 21,457 × 2
      id word    
   <int> <chr>   
 1     1 우리    
 2     1 행복    
 3     2 시국    
 4     2 감사    
 5     2 하다    
 6     2 진심    
 7     3 우리나라
 8     3 영화감독
 9     3 영감    
10     3 봉감    
# ℹ 21,447 more rows

# 3. 빈도 높은 단어 제거하기
count_word <- comment %>%
  add_count(word) %>%
  filter(n <= 200) %>%
  select(-n)
count_word

# A tibble: 18,210 × 2
      id word      
   <int> <chr>     
 1     1 우리      
 2     1 행복      
 3     2 시국      
 4     2 감사      
 5     2 하다      
 6     2 진심      
 7     3 우리나라  
 8     3 영화감독  
 9     3 영감      
10     3 공동각본쓴
# ℹ 18,200 more rows
…
불용어 제거 by using anti_join()

# 불용어 제거하기 - dplyr::anti_join()
count_word <- count_word %>%
  anti_join(stopword, by = "word")

# LDA 모델 만들기
# 1. DTM 만들기
# 문서별 단어 빈도 구하기
count_word_doc <- count_word %>%
  count(id, word, sort = T)
count_word_doc

# A tibble: 17,592 × 3
      id word           n
   <int> <chr>      <int>
 1    35 한국           2
 2   206 자랑           2
 3   566 자랑           2
 4   578 자랑           2
 5   598 자랑           2
 6  1173 한국           2
 7  1599 한국           2
 8  1762 한국           2
 9  2240 한국           2
10  2307 방탄소년단     2
# ℹ 17,582 more rows
…
토픽별 주요 단어

# 토픽별 단어 확률, beta 추출하기
term_topic <- tidy(lda_model, matrix = "beta")
term_topic

# A tibble: 47,960 × 3
   topic term       beta
   <int> <chr>     <dbl>
 1     1 한국  0.000405 
 2     2 한국  0.0000364
 3     3 한국  0.0000353
 4     4 한국  0.00295  
 5     5 한국  0.0000353
 6     6 한국  0.0000356
 7     7 한국  0.00661  
 8     8 한국  0.0593   
 9     1 자랑  0.0181   
10     2 자랑  0.00440  
# ℹ 47,950 more rows
…
# 특정 토픽에서 beta가 높은 단어 살펴보기
term_topic %>%
  filter(topic == 6) %>%
  arrange(-beta)

# A tibble: 5,995 × 3
   topic term        beta
   <int> <chr>      <dbl>
 1     6 작품상   0.0695 
 2     6 감독상   0.0318 
 3     6 한국영화 0.0228 
 4     6 수상     0.0214 
 5     6 각본상   0.0154 
 6     6 나라     0.0143 
 7     6 호감     0.0136 
 8     6 감격     0.0129 
 9     6 순간     0.0125 
10     6 눈물     0.00788
# ℹ 5,985 more rows
…
# 토픽별 주요 단어 시각화하기
# 1. 토픽별로 beta가 가장 높은 단어 추출하기
# 토픽별 beta 상위 10개 단어 추출
top_term_topic <- term_topic %>%
  group_by(topic) %>%
  slice_max(beta, n = 10)
top_term_topic

# A tibble: 83 × 3
# Groups:   topic [8]
   topic term        beta
   <int> <chr>      <dbl>
 1     1 작품     0.0299 
 2     1 진심     0.0240 
 3     1 정치     0.0192 
 4     1 자랑     0.0181 
 5     1 수상소감 0.0166 
 6     1 댓글     0.0151 
 7     1 외국     0.0122 
 8     1 경사     0.0107 
 9     1 훌륭     0.00998
10     1 좌파     0.00814
# ℹ 73 more rows
…
문서를 토픽별로 분류

# 문서별 토픽 확률 gamma 추출하기
doc_topic <- tidy(lda_model, matrix = "gamma")
doc_topic

# A tibble: 25,624 × 3
   document topic  gamma
   <chr>    <int>  <dbl>
 1 35           1 0.151 
 2 206          1 0.15  
 3 566          1 0.110 
 4 578          1 0.114 
 5 598          1 0.110 
 6 1173         1 0.110 
 7 1599         1 0.114 
 8 1762         1 0.0962
 9 2240         1 0.125 
10 2307         1 0.135 
# ℹ 25,614 more rows
…
# A tibble: 1 × 1
  sum_gamma
      <dbl>
1         1

# 문서별 확률이 가장 높은 토픽으로 분류하기
# 1. 문서별로 확률이 가장 높은 토픽 추출하기
doc_class <- doc_topic %>%
  group_by(document) %>%
  slice_max(gamma, n = 1)
doc_class

# A tibble: 5,328 × 3
# Groups:   document [3,203]
   document topic gamma
   <chr>    <int> <dbl>
 1 1            5 0.159
 2 10           8 0.168
 3 100          5 0.153
 4 1000         7 0.15 
 5 1001         1 0.137
 6 1001         3 0.137
 7 1001         7 0.137
 8 1002         3 0.137
 9 1002         7 0.137
10 1002         8 0.137
# ℹ 5,318 more rows

# 2. 원문에 확률이 가장 높은 토픽 번호 부여하기
# integer로 변환
doc_class$document <- as.integer(doc_class$document)

# 원문에 토픽 번호 부여
news_comment_topic <- raw_news_comment %>%
  left_join(doc_class, by = c("id" = "document"))

# 결합 확인
news_comment_topic %>%
  select(id, topic)

# A tibble: 6,275 × 2
      id topic
   <int> <int>
 1     1     5
 2     2     1
 3     2     5
 4     2     6
 5     3     2
 6     3     8
 7     4     4
 8     5     5
 9     5     6
10     6     3
# ℹ 6,265 more rows
…
토픽 이름 짓기

# 토픽별 주요 문서 살펴보고 토픽 이름 짓기
# 1. 원문을 읽기 편하게 전처리하기, gamma가 높은 순으로 정렬하기
comment_topic <- news_comment_topic %>%
  mutate(reply = str_squish(replace_html(reply))) %>%
  arrange(-gamma)

comment_topic %>%
  select(gamma, reply)

# A tibble: 5,328 × 2
   gamma reply                                                                  
   <dbl> <chr>                                                                  
 1 0.264 "도서관서 여자화장실서 나오는 남자사서보고 카메라있는지없는지 확인했다…
 2 0.260 "봉준호 송강호 블랙리스트 올리고 CJ 이미경 대표는 박근혜가 보기싫다는 …
 3 0.239 "보수정권때 블랙리스트에 오른 봉준호 송강호가 보기싫다는 박근혜의 말한…
 4 0.238 "도서관서 여자화장실서 나오는 남자사서보고 카메라있는지없는지 확인했다…
 5 0.235 "당초 \"1917\"과 \"기생충\"의 접전을[초기엔 1917이 훨씬 우세]예상했지… 
 6 0.234 "박그네 밑에서 블랙리스트 있었는데 ㅋㅋㅋㅋㅋㅋㅋ 이미경이는 박근혜가 …
 7 0.226 "위대한 박정희 삼성이 대한민국을 세계에 우뚝 세워 놨기에 가능한 일....…
 8 0.225 "기생충 영화보고 좌빨이 얼마나 기생충인지 못느낀 사람 제정신이야? 좌빨…
 9 0.225 "봉준호 감독과 송강호 배우는 이명박그네 정권 시절 문화계 블랙리스트 였…
10 0.224 "나중에 기생충 정부 영화 한편 나오겠네. 남자 주연 문xx ,여자주연 김정x…
# ℹ 5,318 more rows
…
# 토픽 이름과 주요 단어 시각화하기
# 토픽 이름 결합하기
top_term_topic_name <- top_term_topic %>%
  left_join(name_topic, name_topic, by = "topic")

top_term_topic_name

# A tibble: 83 × 4
# Groups:   topic [8]
   topic term        beta name                                 
   <int> <chr>      <dbl> <chr>                                
 1     1 작품     0.0299  1. 작품상 수상 축하, 정치적 댓글 비판
 2     1 진심     0.0240  1. 작품상 수상 축하, 정치적 댓글 비판
 3     1 정치     0.0192  1. 작품상 수상 축하, 정치적 댓글 비판
 4     1 자랑     0.0181  1. 작품상 수상 축하, 정치적 댓글 비판
 5     1 수상소감 0.0166  1. 작품상 수상 축하, 정치적 댓글 비판
 6     1 댓글     0.0151  1. 작품상 수상 축하, 정치적 댓글 비판
 7     1 외국     0.0122  1. 작품상 수상 축하, 정치적 댓글 비판
 8     1 경사     0.0107  1. 작품상 수상 축하, 정치적 댓글 비판
 9     1 훌륭     0.00998 1. 작품상 수상 축하, 정치적 댓글 비판
10     1 좌파     0.00814 1. 작품상 수상 축하, 정치적 댓글 비판
# ℹ 73 more rows
…
# 3. 모델 추출하기
# 토픽 수가 8개인 모델 추출하기
optimal_model <- models %>%
  filter(topics == 8) %>%
  pull(LDA_model) %>% # 모델 추출
  .[[1]] # list 추출

# optimal_model
tidy(optimal_model, matrix = "beta")

# A tibble: 47,960 × 3
   topic term       beta
   <int> <chr>     <dbl>
 1     1 한국  0.000405 
 2     2 한국  0.0000364
 3     3 한국  0.0000353
 4     4 한국  0.00295  
 5     5 한국  0.0000353
 6     6 한국  0.0000356
 7     7 한국  0.00661  
 8     8 한국  0.0593   
 9     1 자랑  0.0181   
10     2 자랑  0.00440  
# ℹ 47,950 more rows

# lda_model
tidy(lda_model, matrix = "beta")

# A tibble: 47,960 × 3
   topic term       beta
   <int> <chr>     <dbl>
 1     1 한국  0.000405 
 2     2 한국  0.0000364
 3     3 한국  0.0000353
 4     4 한국  0.00295  
 5     5 한국  0.0000353
 6     6 한국  0.0000356
 7     7 한국  0.00661  
 8     8 한국  0.0593   
 9     1 자랑  0.0181   
10     2 자랑  0.00440  
# ℹ 47,950 more rows
…
