CJL Lab - NLP
…
[1] "정권교체 하겠습니다"                                                                                                                                          
[2] "정치교체 하겠습니다"                                                                                                                                          
[3] "시대교체 하겠습니다"                                                                                                                                          
[4] ""                                                                                                                                                             
[5] "불비불명 이라는 고사가 있습니다 남쪽 언덕 나뭇가지에 앉아 년 동안 날지도 울지도 않는 새 그러나 그 새는 한번 날면 하늘 끝까지 날고 한번 울면 천지를 뒤흔듭니다"
[6] ""                                                                                                                                                             

Convert data to tibble structure - as_tibble()

moon <- dplyr::as_tibble(moon)
moon

# A tibble: 117 × 1
   value                                                                        
   <chr>                                                                        
 1 "정권교체 하겠습니다"                                                        
 2 "정치교체 하겠습니다"                                                        
 3 "시대교체 하겠습니다"                                                        
 4 ""                                                                           
 5 "불비불명 이라는 고사가 있습니다 남쪽 언덕 나뭇가지에 앉아 년 동안 날지도 울…
 6 ""                                                                           
 7 "그 동안 정치와 거리를 둬 왔습니다 그러나 암울한 시대가 저를 정치로 불러냈습…
 8 ""                                                                           
 9 ""                                                                           
10 "우리나라 대통령 이 되겠습니다"                                              
# ℹ 107 more rows
…
text %>% # 문자 기준 토큰화
  unnest_tokens(input = value,
                output = word,
                token = 'characters')

# A tibble: 40 × 1
   word 
   <chr>
 1 대   
 2 한   
 3 민   
 4 국   
 5 은   
 6 민   
 7 주   
 8 공   
 9 화   
10 국   
# ℹ 30 more rows

# 연설문 토큰화하기 
word_space <- moon %>% 
  unnest_tokens(input = value,
                output = word,
                token = 'words')
word_space

# A tibble: 2,025 × 1
   word      
   <chr>     
 1 정권교체  
 2 하겠습니다
 3 정치교체  
 4 하겠습니다
 5 시대교체  
 6 하겠습니다
 7 불비불명  
 8 이라는    
 9 고사가    
10 있습니다  
# ℹ 2,015 more rows

Word frequency visualization

# 단어 빈도 구하기 - count()
temp_word_space <- word_space %>% 
  count(word, sort = T)
temp_word_space

# A tibble: 1,440 × 2
   word             n
   <chr>        <int>
 1 합니다          27
 2 수              16
 3 있습니다        13
 4 저는            13
 5 등              12
 6 있는            12
 7 함께            12
 8 만들겠습니다    11
 9 일자리          10
10 국민의           9
# ℹ 1,430 more rows
…
[1] 1

str_count('사과')

[1] 2

# 두 글자 이상만 남기기
temp_word_space <- temp_word_space %>% 
  filter(str_count(word) > 1)
temp_word_space

# A tibble: 1,384 × 2
   word             n
   <chr>        <int>
 1 합니다          27
 2 있습니다        13
 3 저는            13
 4 있는            12
 5 함께            12
 6 만들겠습니다    11
 7 일자리          10
 8 국민의           9
 9 우리             9
10 우리나라         9
# ℹ 1,374 more rows

# 한 번에 작업하기
word_space <- word_space %>% 
  count(word, sort = T) %>% 
  filter(str_count(word) > 1)
word_space

# A tibble: 1,384 × 2
   word             n
   <chr>        <int>
 1 합니다          27
 2 있습니다        13
 3 저는            13
 4 있는            12
 5 함께            12
 6 만들겠습니다    11
 7 일자리          10
 8 국민의           9
 9 우리             9
10 우리나라         9
# ℹ 1,374 more rows
…
raw_moon <- readLines('data/speech_moon.txt', encoding = 'UTF-8')

# 기본적인 전처리
library(stringr)
# install.packages('textclean')
library(textclean)

moon <- raw_moon %>% 
  str_replace_all('[^가-힣]', ' ') %>% 
  str_squish() %>% 
  as_tibble()
moon

# A tibble: 117 × 1
   value                                                                        
   <chr>                                                                        
 1 "정권교체 하겠습니다"                                                        
 2 "정치교체 하겠습니다"                                                        
 3 "시대교체 하겠습니다"                                                        
 4 ""                                                                           
 5 "불비불명 이라는 고사가 있습니다 남쪽 언덕 나뭇가지에 앉아 년 동안 날지도 울…
 6 ""                                                                           
 7 "그 동안 정치와 거리를 둬 왔습니다 그러나 암울한 시대가 저를 정치로 불러냈습…
 8 ""                                                                           
 9 ""                                                                           
10 "우리나라 대통령 이 되겠습니다"                                              
# ℹ 107 more rows

# 명사 기준 토큰화
word_noun <- moon %>% 
  unnest_tokens(input = value,
                output = word,
                token = extractNoun)
word_noun

# A tibble: 1,757 × 1
   word      
   <chr>     
 1 "정권교체"
 2 "하겠습니"
 3 "정치"    
 4 "교체"    
 5 "하겠습니"
 6 "시대"    
 7 "교체"    
 8 "하겠습니"
 9 ""        
10 "불비불명"
# ℹ 1,747 more rows

# 단어 빈도 구하기
word_noun <- word_noun %>% 
  count(word, sort = T) %>% # 단어 빈도 구해 내림차순 정렬
  filter(str_count(word) > 1) # 두 글자 이상만 남기기
word_noun

# A tibble: 704 × 2
   word       n
   <chr>  <int>
 1 국민      21
 2 일자리    21
 3 나라      19
 4 우리      17
 5 경제      15
 6 사회      14
 7 성장      13
 8 대통령    12
 9 정치      12
10 하게      12
# ℹ 694 more rows

# 띄어쓰기 기준 추출
moon %>% 
  unnest_tokens(input = value,
                output = word,
                token = 'words') %>% 
  count(word, sort = T) %>% 
  filter(str_count(word) > 1)

# A tibble: 1,384 × 2
   word             n
   <chr>        <int>
 1 합니다          27
 2 있습니다        13
 3 저는            13
 4 있는            12
 5 함께            12
 6 만들겠습니다    11
 7 일자리          10
 8 국민의           9
 9 우리             9
10 우리나라         9
# ℹ 1,374 more rows

# 명사 추출
moon %>% 
  unnest_tokens(input = value,
                output = word,
                token = extractNoun) %>% 
  count(word, sort = T) %>% 
  filter(str_count(word) > 1)

# A tibble: 704 × 2
   word       n
   <chr>  <int>
 1 국민      21
 2 일자리    21
 3 나라      19
 4 우리      17
 5 경제      15
 6 사회      14
 7 성장      13
 8 대통령    12
 9 정치      12
10 하게      12
# ℹ 694 more rows
…
# 문장 기준으로 토큰화하기
sentences_moon <- raw_moon %>% 
  str_squish() %>% 
  as_tibble() %>% 
  unnest_tokens(input = value,
                output = sentence,
                token = 'sentences')
sentences_moon

# A tibble: 207 × 1
   sentence                                                               
   <chr>                                                                  
 1 정권교체 하겠습니다!                                                   
 2 정치교체 하겠습니다!                                                   
 3 시대교체 하겠습니다!                                                   
 4 ‘불비불명(不飛不鳴)’이라는 고사가 있습니다.                            
 5 남쪽 언덕 나뭇가지에 앉아, 3년 동안 날지도 울지도 않는 새.             
 6 그러나 그 새는 한번 날면 하늘 끝까지 날고, 한번 울면 천지를 뒤흔듭니다.
 7 그 동안 정치와 거리를 둬 왔습니다.                                     
 8 그러나 암울한 시대가 저를 정치로 불러냈습니다.                         
 9 더 이상 남쪽 나뭇가지에 머무를 수 없었습니다.                          
10 이제 저는 국민과 함께 높이 날고 크게 울겠습니다.                       
# ℹ 197 more rows
…
