CJL Lab - NLP
…
Checking user defined dictionary!

comment_pos <- news_comment %>%
  unnest_tokens(input = reply,
                output = word,
                token = SimplePos22,
                drop = F)

comment_pos %>%
  select(reply, word)

# A tibble: 39,956 × 2
   reply                                                                   word 
   <chr>                                                                   <chr>
 1 정말 우리 집에 좋은 일이 생겨 기쁘고 행복한 것처럼 나의 일인 양 행복합… 정말…
 2 정말 우리 집에 좋은 일이 생겨 기쁘고 행복한 것처럼 나의 일인 양 행복합… 우리…
 3 정말 우리 집에 좋은 일이 생겨 기쁘고 행복한 것처럼 나의 일인 양 행복합… 집/n…
 4 정말 우리 집에 좋은 일이 생겨 기쁘고 행복한 것처럼 나의 일인 양 행복합… 좋/p…
 5 정말 우리 집에 좋은 일이 생겨 기쁘고 행복한 것처럼 나의 일인 양 행복합… 일/n…
 6 정말 우리 집에 좋은 일이 생겨 기쁘고 행복한 것처럼 나의 일인 양 행복합… 생기…
 7 정말 우리 집에 좋은 일이 생겨 기쁘고 행복한 것처럼 나의 일인 양 행복합… 기쁘…
 8 정말 우리 집에 좋은 일이 생겨 기쁘고 행복한 것처럼 나의 일인 양 행복합… 행복…
 9 정말 우리 집에 좋은 일이 생겨 기쁘고 행복한 것처럼 나의 일인 양 행복합… 것/n…
10 정말 우리 집에 좋은 일이 생겨 기쁘고 행복한 것처럼 나의 일인 양 행복합… 나/n…
# … with 39,946 more rows

# 2. 품사 분리하여 행 구성하기
library(tidyr)
comment_pos <- comment_pos %>%
  separate_rows(word, sep = "[+]")

comment_pos %>%
  select(word, reply)

# A tibble: 70,553 × 2
   word    reply                                                                
   <chr>   <chr>                                                                
 1 정말/ma 정말 우리 집에 좋은 일이 생겨 기쁘고 행복한 것처럼 나의 일인 양 행복…
 2 우리/np 정말 우리 집에 좋은 일이 생겨 기쁘고 행복한 것처럼 나의 일인 양 행복…
 3 집/nc   정말 우리 집에 좋은 일이 생겨 기쁘고 행복한 것처럼 나의 일인 양 행복…
 4 에/jc   정말 우리 집에 좋은 일이 생겨 기쁘고 행복한 것처럼 나의 일인 양 행복…
 5 좋/pa   정말 우리 집에 좋은 일이 생겨 기쁘고 행복한 것처럼 나의 일인 양 행복…
 6 은/et   정말 우리 집에 좋은 일이 생겨 기쁘고 행복한 것처럼 나의 일인 양 행복…
 7 일/nc   정말 우리 집에 좋은 일이 생겨 기쁘고 행복한 것처럼 나의 일인 양 행복…
 8 이/jc   정말 우리 집에 좋은 일이 생겨 기쁘고 행복한 것처럼 나의 일인 양 행복…
 9 생기/pv 정말 우리 집에 좋은 일이 생겨 기쁘고 행복한 것처럼 나의 일인 양 행복…
10 어/ec   정말 우리 집에 좋은 일이 생겨 기쁘고 행복한 것처럼 나의 일인 양 행복…
# … with 70,543 more rows

# 3. 품사 추출하기
# 명사 추출하기
noun <- comment_pos %>%
  filter(str_detect(word, "/n")) %>%
  mutate(word = str_remove(word, "/.*$"))

noun %>%
  select(word, reply)

# A tibble: 27,457 × 2
   word   reply                                                                
   <chr>  <chr>                                                                
 1 우리   정말 우리 집에 좋은 일이 생겨 기쁘고 행복한 것처럼 나의 일인 양 행복…
 2 집     정말 우리 집에 좋은 일이 생겨 기쁘고 행복한 것처럼 나의 일인 양 행복…
 3 일     정말 우리 집에 좋은 일이 생겨 기쁘고 행복한 것처럼 나의 일인 양 행복…
 4 행복한 정말 우리 집에 좋은 일이 생겨 기쁘고 행복한 것처럼 나의 일인 양 행복…
 5 것     정말 우리 집에 좋은 일이 생겨 기쁘고 행복한 것처럼 나의 일인 양 행복…
 6 나     정말 우리 집에 좋은 일이 생겨 기쁘고 행복한 것처럼 나의 일인 양 행복…
 7 일     정말 우리 집에 좋은 일이 생겨 기쁘고 행복한 것처럼 나의 일인 양 행복…
 8 양     정말 우리 집에 좋은 일이 생겨 기쁘고 행복한 것처럼 나의 일인 양 행복…
 9 행복   정말 우리 집에 좋은 일이 생겨 기쁘고 행복한 것처럼 나의 일인 양 행복…
10 행복   정말 우리 집에 좋은 일이 생겨 기쁘고 행복한 것처럼 나의 일인 양 행복…
# … with 27,447 more rows

# 명사 빈도 구하기
noun %>%
  count(word, sort = T)

# A tibble: 8,069 × 2
   word         n
   <chr>    <int>
 1 영화       463
 2 기생충     445
 3 봉준호     372
 4 것         353
 5 아카데미   252
 6 축하       232
 7 나         230
 8 대한민국   226
 9 자랑       222
10 작품상     218
# … with 8,059 more rows

# 동사, 형용사 추출하기
pvpa <- comment_pos %>%
  filter(str_detect(word, "/pv|/pa")) %>% # "/pv", "/pa" 추출
  mutate(word = str_replace(word, "/.*$", "다")) # "/"로 시작 문자를 "다"로 바꾸기

pvpa %>%
  select(word, reply)

# A tibble: 5,317 × 2
   word       reply                                                             
   <chr>      <chr>                                                             
 1 좋다       정말 우리 집에 좋은 일이 생겨 기쁘고 행복한 것처럼 나의 일인 양 … 
 2 생기다     정말 우리 집에 좋은 일이 생겨 기쁘고 행복한 것처럼 나의 일인 양 … 
 3 기쁘다     정말 우리 집에 좋은 일이 생겨 기쁘고 행복한 것처럼 나의 일인 양 … 
 4 축하드리다 정말 우리 집에 좋은 일이 생겨 기쁘고 행복한 것처럼 나의 일인 양 … 
 5 기쁘다     정말 우리 집에 좋은 일이 생겨 기쁘고 행복한 것처럼 나의 일인 양 … 
 6 기쁘다     와 너무 기쁘다 이 시국에 정말 내 일같이 기쁘고 감사하다 축하드려… 
 7 기쁘다     와 너무 기쁘다 이 시국에 정말 내 일같이 기쁘고 감사하다 축하드려… 
 8 축하드리다 와 너무 기쁘다 이 시국에 정말 내 일같이 기쁘고 감사하다 축하드려… 
 9 불다       우리나라의 영화감독분들 그리고 앞으로 그 꿈을 그리는 분들에게 큰 …
10 크다       우리나라의 영화감독분들 그리고 앞으로 그 꿈을 그리는 분들에게 큰 …
# … with 5,307 more rows

# 품사 결합
comment <- bind_rows(noun, pvpa) %>%
  filter(str_count(word) >= 2) %>%
  arrange(id)

comment %>%
  select(word, reply)

# A tibble: 26,860 × 2
   word       reply                                                            
   <chr>      <chr>                                                            
 1 우리       정말 우리 집에 좋은 일이 생겨 기쁘고 행복한 것처럼 나의 일인 양 …
 2 행복한     정말 우리 집에 좋은 일이 생겨 기쁘고 행복한 것처럼 나의 일인 양 …
 3 행복       정말 우리 집에 좋은 일이 생겨 기쁘고 행복한 것처럼 나의 일인 양 …
 4 행복       정말 우리 집에 좋은 일이 생겨 기쁘고 행복한 것처럼 나의 일인 양 …
 5 좋다       정말 우리 집에 좋은 일이 생겨 기쁘고 행복한 것처럼 나의 일인 양 …
 6 생기다     정말 우리 집에 좋은 일이 생겨 기쁘고 행복한 것처럼 나의 일인 양 …
 7 기쁘다     정말 우리 집에 좋은 일이 생겨 기쁘고 행복한 것처럼 나의 일인 양 …
 8 축하드리다 정말 우리 집에 좋은 일이 생겨 기쁘고 행복한 것처럼 나의 일인 양 …
 9 기쁘다     정말 우리 집에 좋은 일이 생겨 기쁘고 행복한 것처럼 나의 일인 양 …
10 시국       와 너무 기쁘다 이 시국에 정말 내 일같이 기쁘고 감사하다 축하드려…
# … with 26,850 more rows
…
# 단어 동시 출현 빈도 구하기
# install.packages("widyr")
library(widyr)
pair <- comment %>%
  pairwise_count(item = word,
                 feature = id,
                 sort = T)
pair

# A tibble: 245,920 × 3
   item1      item2      n
   <chr>      <chr>  <dbl>
 1 영화       기생충   111
 2 기생충     영화     111
 3 감독       봉준호    86
 4 봉준호     감독      86
 5 감독님     봉준호    66
 6 봉준호     감독님    66
 7 만들다     영화      57
 8 영화       만들다    57
 9 기생충     봉준호    54
10 블랙리스트 감독      54
# … with 245,910 more rows

# 특정 단어와 자주 함께 사용된 단어 살펴보기
pair %>% filter(item1 == "영화")

# A tibble: 2,313 × 3
   item1 item2        n
   <chr> <chr>    <dbl>
 1 영화  기생충     111
 2 영화  만들다      57
 3 영화  봉준호      52
 4 영화  받다        48
 5 영화  한국        46
 6 영화  아카데미    42
 7 영화  같다        41
 8 영화  감독        39
 9 영화  아니다      38
10 영화  좋다        35
# … with 2,303 more rows

pair %>% filter(item1 == "봉준호")

# A tibble: 1,579 × 3
   item1  item2          n
   <chr>  <chr>      <dbl>
 1 봉준호 감독          86
 2 봉준호 감독님        66
 3 봉준호 기생충        54
 4 봉준호 영화          52
 5 봉준호 블랙리스트    48
 6 봉준호 대한민국      38
 7 봉준호 자랑          33
 8 봉준호 축하드리다    30
 9 봉준호 송강호        30
10 봉준호 축하          25
# … with 1,569 more rows
…
news_comment %>%
  filter(str_detect(reply, "박근혜") & str_detect(reply, "블랙리스트")) %>%
  select(reply)

# A tibble: 63 × 1
   reply                                                                        
   <chr>                                                                        
 1 일베와 자한당이 싫어하는 봉준호 감독이 아카데미에서 상받으니 쪽바리들처럼 엄…
 2 박근혜 블랙리스트 로 낙인찍은 봉준호 감독님이 아시아 최초로 오스카에서 상을 …
 3 우리나라에서만 좌파다 빨갱이다 라고 비하함 박근혜 때 이런 세계적 감독을 블랙…
 4 박근혜 최순실 블랙리스트에 오른 훌륭하신 감독님 축하합니다                   
 5 박근혜정부가 얼마나 썩고 무능했냐면 각종 영화제에서 최고상 수상을 받는 유능… 
 6 넷상 보수들 만큼 이중적인 새 끼들 없음 봉준호 송강호 보고 종북좌빨 홍어드립 …
 7 박근혜 자한당 독재시절 봉준호 송강호를 블랙리스트 올려놓고 활동 방해 감시하… 
 8 대단합니다 김연아 방탄 봉준호 스포츠 음악 영화 못하는게 없어요 좌빨 감독이라…
 9 송강호 봉준호 박근혜 이명박 시절 블랙리스트 이제 어떻게 깔려구               
10 이명박근혜정권당시 좌파감독이라고 블랙리스트까지 올랏던 봉준호 역사적위업을 …
# … with 53 more rows

news_comment %>%
  filter(str_detect(reply, "기생충") & str_detect(reply, "조국")) %>%
  select(reply)

# A tibble: 64 × 1
   reply                                                                        
   <chr>                                                                        
 1 조국이가 받아야 한다 기생충 스토리 제공                                      
 2 한번도경험하지 못한 조국가족사기단기생충 개봉박두                            
 3 와 조국 가족 사기단 부제 기생충 최고                                         
 4 문재인과 조국 기생충 리얼                                                    
 5 기생충은 좌좀 조국 가족을 패러디한 영화라서 우파들도 열광하고 있는 것이다 같…
 6 조국 가족이 기생충 영화를 꼭 봐야되는데                                      
 7 좌파 인생영화인데 좌파 기생충들에게 이 상을 받쳐라 조국 서울대 문서위조학과 …
 8 기생충 조국 봉준호 만세                                                      
 9 봉준호감독님 글로벌 영화계 큰상수상을 진심으로 축하합니다 다만 기생충 작품은…
10 기생충보면서 조국생각난사람 나쁜일라나 봉준호 감독님이 현 시대를 참 잘 반영… 
# … with 54 more rows

단어 상관 분석

# 파이 계수 구하기
word_cors <- comment %>%
  add_count(word) %>%
  filter(n >= 20) %>%
  pairwise_cor(item = word,
               feature = id,
               sort = T)
word_cors

# A tibble: 26,732 × 3
   item1      item2      correlation
   <chr>      <chr>            <dbl>
 1 올리다     블랙리스트       0.478
 2 블랙리스트 올리다           0.478
 3 역사       쓰다             0.370
 4 쓰다       역사             0.370
 5 박근혜     블랙리스트       0.322
 6 블랙리스트 박근혜           0.322
 7 가족       조국             0.306
 8 조국       가족             0.306
 9 작품상     감독상           0.276
10 감독상     작품상           0.276
# … with 26,722 more rows

# 특정 단어와 관련성이 큰 단어 살펴보기
word_cors %>%
  filter(item1 == "대한민국")

# A tibble: 163 × 3
   item1    item2  correlation
   <chr>    <chr>        <dbl>
 1 대한민국 국민        0.182 
 2 대한민국 자랑        0.158 
 3 대한민국 위상        0.149 
 4 대한민국 국격        0.129 
 5 대한민국 위대한      0.100 
 6 대한민국 세계        0.0910
 7 대한민국 문화        0.0757
 8 대한민국 감사합      0.0724
 9 대한민국 나라        0.0715
10 대한민국 오늘        0.0715
# … with 153 more rows

word_cors %>%
  filter(item1 == "역사")

# A tibble: 163 × 3
   item1 item2    correlation
   <chr> <chr>          <dbl>
 1 역사  쓰다          0.370 
 2 역사  최초          0.117 
 3 역사  한국          0.0982
 4 역사  순간          0.0910
 5 역사  한국영화      0.0821
 6 역사  아니다        0.0774
 7 역사  감사          0.0654
 8 역사  영광          0.0640
 9 역사  영화제        0.0596
10 역사  오스카        0.0593
# … with 153 more rows
…
# 2. 유의어 처리하기
comment_new <- comment_new %>%
  mutate(word = ifelse(str_detect(word, "감독") &
                         !str_detect(word, "감독상"), "봉준호", word),
         word = ifelse(word == "오르다", "올리다", word),
         word = ifelse(str_detect(word, "축하"), "축하", word))

# 3. 한 댓글이 하나의 행이 되도록 결합하기
comment_new %>%
  select(word)

# A tibble: 26,860 × 1
   word  
   <chr> 
 1 우리  
 2 좋다  
 3 생기다
 4 기쁘다
 5 행복한
 6 행복  
 7 축하  
 8 행복  
 9 기쁘다
10 기쁘다
# … with 26,850 more rows

line_comment <- comment_new %>%
  group_by(id) %>%
  summarise(sentence = paste(word, collapse = " "))

line_comment

# A tibble: 4,007 × 2
      id sentence                                                               
   <int> <chr>                                                                  
 1     1 우리 좋다 생기다 기쁘다 행복한 행복 축하 행복 기쁘다                   
 2     2 기쁘다 시국 기쁘다 감사하다 축하 진심                                  
 3     3 우리나라 봉준호 불다 크다 영감 봉준호 공동각본쓴 한진 작가님 축하 축하…
 4     4 봉준호 봉준호 우리나라 대한민국 자랑 세계 어디 우리 한국인 힘내다 삽시 
 5     5 노벨상 탄느낌이네요 축하                                               
 6     6 기생충 받다 박수 치다 감독상 기대다 봉준호 봉준호                      
 7     7 대한민국 영화사 쓰다 계시다                                            
 8     8 아카데미상 받다 태극기 휘날리다 광해 명량 전부문 휩쓸어야겠            
 9     9 다시한번 보이다 영화관                                                 
10    10 대한민국 봉준호 대단 한국의 문화 자긍심 가지                           
# … with 3,997 more rows

# 4. 바이그램으로 토큰화하기
bigram_comment <- line_comment %>%
  unnest_tokens(input = sentence,
                output = bigram,
                token = "ngrams",
                n = 2)
bigram_comment

# A tibble: 23,348 × 2
      id bigram       
   <int> <chr>        
 1     1 우리 좋다    
 2     1 좋다 생기다  
 3     1 생기다 기쁘다
 4     1 기쁘다 행복한
 5     1 행복한 행복  
 6     1 행복 축하    
 7     1 축하 행복    
 8     1 행복 기쁘다  
 9     2 기쁘다 시국  
10     2 시국 기쁘다  
# … with 23,338 more rows

# 연이어 사용된 단어쌍 빈도 구하기
# 1. 바이그램 분리하기
bigram_seprated <- bigram_comment %>%
  separate(bigram, c("word1", "word2"), sep = " ")
bigram_seprated

# A tibble: 23,348 × 3
      id word1  word2 
   <int> <chr>  <chr> 
 1     1 우리   좋다  
 2     1 좋다   생기다
 3     1 생기다 기쁘다
 4     1 기쁘다 행복한
 5     1 행복한 행복  
 6     1 행복   축하  
 7     1 축하   행복  
 8     1 행복   기쁘다
 9     2 기쁘다 시국  
10     2 시국   기쁘다
# … with 23,338 more rows

# 2. 단어쌍 빈도 구하기
pair_bigram <- bigram_seprated %>%
  count(word1, word2, sort = T) %>%
  na.omit()
pair_bigram

# A tibble: 19,030 × 3
   word1      word2          n
   <chr>      <chr>      <int>
 1 봉준호     봉준호       155
 2 블랙리스트 올리다        64
 3 진심       축하          64
 4 봉준호     축하          57
 5 봉준호     송강호        34
 6 영화       만들다        31
 7 축하       봉준호        31
 8 대단       축하          27
 9 봉준호     블랙리스트    27
10 대박       축하          26
# … with 19,020 more rows

# 3. 단어쌍 살펴보기
# 동시 출현 단어쌍
pair %>%
  filter(item1 == "대한민국")

# A tibble: 1,010 × 3
   item1    item2        n
   <chr>    <chr>    <dbl>
 1 대한민국 봉준호      70
 2 대한민국 축하        54
 3 대한민국 자랑        44
 4 대한민국 영화        30
 5 대한민국 기생충      27
 6 대한민국 국민        22
 7 대한민국 세계        16
 8 대한민국 아카데미    16
 9 대한민국 위상        15
10 대한민국 좋다        14
# … with 1,000 more rows

# 바이그램 단어쌍
pair_bigram %>%
  filter(word1 == "대한민국")

# A tibble: 109 × 3
   word1    word2      n
   <chr>    <chr>  <int>
 1 대한민국 국민      21
 2 대한민국 자랑      15
 3 대한민국 영화      11
 4 대한민국 국격       8
 5 대한민국 위상       7
 6 대한민국 만세       6
 7 대한민국 봉준호     5
 8 대한민국 문화       4
 9 대한민국 영광       4
10 대한민국 기생충     3
# … with 99 more rows
…
