CJL & Lab - Pre-class R code
…
Rows: 1,704
Columns: 6
$ country   <fct> "Afghanistan", "Afghanistan", "Afghanistan", "Afghanistan", …
$ continent <fct> Asia, Asia, Asia, Asia, Asia, Asia, Asia, Asia, Asia, Asia, …
$ year      <int> 1952, 1957, 1962, 1967, 1972, 1977, 1982, 1987, 1992, 1997, …
$ lifeExp   <dbl> 28.8, 30.3, 32.0, 34.0, 36.1, 38.4, 39.9, 40.8, 41.7, 41.8, …
$ pop       <int> 8425333, 9240934, 10267083, 11537966, 13079460, 14880372, 12…
$ gdpPercap <dbl> 779, 821, 853, 836, 740, 786, 978, 852, 649, 635, 727, 975, …

gapminder[, c("country", "lifeExp")]

# A tibble: 1,704 × 2
   country     lifeExp
   <fct>         <dbl>
 1 Afghanistan    28.8
 2 Afghanistan    30.3
 3 Afghanistan    32.0
 4 Afghanistan    34.0
 5 Afghanistan    36.1
 6 Afghanistan    38.4
 7 Afghanistan    39.9
 8 Afghanistan    40.8
 9 Afghanistan    41.7
10 Afghanistan    41.8
# ℹ 1,694 more rows

gapminder[, c("country", "lifeExp", "year")]

# A tibble: 1,704 × 3
   country     lifeExp  year
   <fct>         <dbl> <int>
 1 Afghanistan    28.8  1952
 2 Afghanistan    30.3  1957
 3 Afghanistan    32.0  1962
 4 Afghanistan    34.0  1967
 5 Afghanistan    36.1  1972
 6 Afghanistan    38.4  1977
 7 Afghanistan    39.9  1982
 8 Afghanistan    40.8  1987
 9 Afghanistan    41.7  1992
10 Afghanistan    41.8  1997
# ℹ 1,694 more rows
…
 lifeExp      pop 
7.01e+01 4.29e+06 

apply(gapminder[gapminder$country == "Korea, Rep.", 
                c("lifeExp","pop")], 
      2, mean)

 lifeExp      pop 
      65 36499386 

# 03 dplyr 라이브러리를 이용한 데이터 가공 # 
select(gapminder, country, year, lifeExp)

# A tibble: 1,704 × 3
   country      year lifeExp
   <fct>       <int>   <dbl>
 1 Afghanistan  1952    28.8
 2 Afghanistan  1957    30.3
 3 Afghanistan  1962    32.0
 4 Afghanistan  1967    34.0
 5 Afghanistan  1972    36.1
 6 Afghanistan  1977    38.4
 7 Afghanistan  1982    39.9
 8 Afghanistan  1987    40.8
 9 Afghanistan  1992    41.7
10 Afghanistan  1997    41.8
# ℹ 1,694 more rows
…
# A tibble: 5 × 2
  continent   pop_avg
  <fct>         <dbl>
1 Africa     9916003.
2 Americas  24504795.
3 Asia      77038722.
4 Europe    17169765.
5 Oceania    8874672.

summarise(group_by(gapminder, continent, country), pop_avg = mean(pop))

`summarise()` has grouped output by 'continent'. You can override using the
`.groups` argument.

# A tibble: 142 × 3
# Groups:   continent [5]
   continent country                    pop_avg
   <fct>     <fct>                        <dbl>
 1 Africa    Algeria                  19875406.
 2 Africa    Angola                    7309390.
 3 Africa    Benin                     4017497.
 4 Africa    Botswana                   971186.
 5 Africa    Burkina Faso              7548677.
 6 Africa    Burundi                   4651608.
 7 Africa    Cameroon                  9816648.
 8 Africa    Central African Republic  2560963 
 9 Africa    Chad                      5329256.
10 Africa    Comoros                    361684.
# ℹ 132 more rows

gapminder %>% 
  group_by(continent, country) %>% 
  summarise(pop_avg = mean(pop))

`summarise()` has grouped output by 'continent'. You can override using the
`.groups` argument.

# A tibble: 142 × 3
# Groups:   continent [5]
   continent country                    pop_avg
   <fct>     <fct>                        <dbl>
 1 Africa    Algeria                  19875406.
 2 Africa    Angola                    7309390.
 3 Africa    Benin                     4017497.
 4 Africa    Botswana                   971186.
 5 Africa    Burkina Faso              7548677.
 6 Africa    Burundi                   4651608.
 7 Africa    Cameroon                  9816648.
 8 Africa    Central African Republic  2560963 
 9 Africa    Chad                      5329256.
10 Africa    Comoros                    361684.
# ℹ 132 more rows
…
(x_avg = avocado %>% group_by(region) %>% summarize(V_avg = mean(Total.Volume), P_avg = mean(AveragePrice)))

# A tibble: 54 × 3
   region                 V_avg P_avg
   <chr>                  <dbl> <dbl>
 1 Albany                47538.  1.56
 2 Atlanta              262145.  1.34
 3 BaltimoreWashington  398562.  1.53
 4 Boise                 42643.  1.35
 5 Boston               287793.  1.53
 6 BuffaloRochester      67936.  1.52
 7 California          3044324.  1.40
 8 Charlotte            105194.  1.61
 9 Chicago              395569.  1.56
10 CincinnatiDayton     131722.  1.21
# ℹ 44 more rows

(x_avg = avocado %>% group_by(region, year) %>% summarize(V_avg = mean(Total.Volume), P_avg = mean(AveragePrice)))

`summarise()` has grouped output by 'region'. You can override using the
`.groups` argument.

# A tibble: 216 × 4
# Groups:   region [54]
   region               year   V_avg P_avg
   <chr>               <int>   <dbl> <dbl>
 1 Albany               2015  38749.  1.54
 2 Albany               2016  50619.  1.53
 3 Albany               2017  49355.  1.64
 4 Albany               2018  64249.  1.44
 5 Atlanta              2015 223382.  1.38
 6 Atlanta              2016 272374.  1.21
 7 Atlanta              2017 271841.  1.43
 8 Atlanta              2018 342976.  1.29
 9 BaltimoreWashington  2015 390823.  1.37
10 BaltimoreWashington  2016 393210.  1.59
# ℹ 206 more rows
…
# install.packages("ggplot2")
library(ggplot2)

arrange(x_avg, desc(V_avg))

# A tibble: 432 × 5
# Groups:   region, year [216]
   region        year type             V_avg P_avg
   <chr>        <int> <chr>            <dbl> <dbl>
 1 TotalUS       2018 conventional 42125533. 1.06 
 2 TotalUS       2016 conventional 34043450. 1.05 
 3 TotalUS       2017 conventional 33995658. 1.22 
 4 TotalUS       2015 conventional 31224729. 1.01 
 5 SouthCentral  2018 conventional  7465557. 0.806
 6 West          2018 conventional  7451445. 0.981
 7 California    2018 conventional  6786962. 1.08 
 8 West          2016 conventional  6404892. 0.916
 9 West          2017 conventional  6279482. 1.10 
10 California    2016 conventional  6105539. 1.05 
# ℹ 422 more rows
…
