Data Wranggling with tidyverse in R – CJL & Lab
…
car_brands

# A tibble: 32 × 2
   car_name          brand  
   <chr>             <chr>  
 1 Mazda RX4         Mazda  
 2 Mazda RX4 Wag     Mazda  
 3 Datsun 710        Datsun 
 4 Hornet 4 Drive    Hornet 
 5 Hornet Sportabout Hornet 
 6 Valiant           Valiant
 7 Duster 360        Duster 
 8 Merc 240D         Merc   
 9 Merc 230          Merc   
10 Merc 280          Merc   
# ℹ 22 more rows
…
Additional data wrangling tasks

Counting occurrences

To count the occurrences of a specific value or group of values in a dataset, use the count() function.

# Count the occurrences of each brand in the car_brands dataset
brand_counts <- car_brands %>%
  count(brand, sort = TRUE)

brand_counts

# A tibble: 22 × 2
   brand        n
   <chr>    <int>
 1 Merc         7
 2 Fiat         2
 3 Hornet       2
 4 Mazda        2
 5 Toyota       2
 6 AMC          1
 7 Cadillac     1
 8 Camaro       1
 9 Chrysler     1
10 Datsun       1
# ℹ 12 more rows
…
           car_name  mpg cyl disp  hp drat    wt  qsec vs am gear carb   brand
1         Mazda RX4 21.0   6  160 110 3.90 2.620 16.46  0  1    4    4   Mazda
2     Mazda RX4 Wag 21.0   6  160 110 3.90 2.875 17.02  0  1    4    4   Mazda
3        Datsun 710 22.8   4  108  93 3.85 2.320 18.61  1  1    4    1  Datsun
4    Hornet 4 Drive 21.4   6  258 110 3.08 3.215 19.44  1  0    3    1  Hornet
5 Hornet Sportabout 18.7   8  360 175 3.15 3.440 17.02  0  0    3    2  Hornet
6           Valiant 18.1   6  225 105 2.76 3.460 20.22  1  0    3    1 Valiant

nested_data <- left_joined %>%
  group_by(brand) %>%
  nest()

nested_data

# A tibble: 22 × 2
# Groups:   brand [22]
   brand    data             
   <chr>    <list>           
 1 Mazda    <tibble [2 × 12]>
 2 Datsun   <tibble [1 × 12]>
 3 Hornet   <tibble [2 × 12]>
 4 Valiant  <tibble [1 × 12]>
 5 Duster   <tibble [1 × 12]>
 6 Merc     <tibble [7 × 12]>
 7 Cadillac <tibble [1 × 12]>
 8 Lincoln  <tibble [1 × 12]>
 9 Chrysler <tibble [1 × 12]>
10 Fiat     <tibble [2 × 12]>
# ℹ 12 more rows

# Calculate mean mpg for each brand
mean_mpg_by_brand <- nested_data %>%
  mutate(mean_mpg = map_dbl(data, ~ mean(.x$mpg, na.rm = TRUE)))
mean_mpg_by_brand

# A tibble: 22 × 3
# Groups:   brand [22]
   brand    data              mean_mpg
   <chr>    <list>               <dbl>
 1 Mazda    <tibble [2 × 12]>     21  
 2 Datsun   <tibble [1 × 12]>     22.8
 3 Hornet   <tibble [2 × 12]>     20.0
 4 Valiant  <tibble [1 × 12]>     18.1
 5 Duster   <tibble [1 × 12]>     14.3
 6 Merc     <tibble [7 × 12]>     19.0
 7 Cadillac <tibble [1 × 12]>     10.4
 8 Lincoln  <tibble [1 × 12]>     10.4
 9 Chrysler <tibble [1 × 12]>     14.7
10 Fiat     <tibble [2 × 12]>     31.4
# ℹ 12 more rows
…
